{
  "labware_position_check_title": "Labware Position Check",
  "labware_position_check_overview": "Labware Position Check Overview",
  "position_check_description": "<block>Labware Position Check is a guided workflow that checks every labware on the deck for an added degree of precision in your protocol.</block><block>When you check a labware, the OT-2’s pipette nozzle or attached tip will stop at the center of the A1 well. If the pipette nozzle or tip is not centered, you can reveal the OT-2’s jog controls to make an adjustment. This Labware Offset will be applied to the entire labware. Offset data is measured to the nearest 1/10th mm and can be made in the X, Y and/or Z directions.</block>",
  "secondary_pipette_tipracks_section": "Check tipracks with {{secondary_mount}} Pipette",
  "primary_pipette_tipracks_section": "Check tipracks with {{primary_mount}} Pipette",
  "check_remaining_labware_with_primary_pipette_section": "Check remaining labware with {{primary_mount}} Pipette",
  "return_tip_section": "Return tip",
  "labware_step_detail_labware": "The tip should be centered above A1 in <italic>{{labware_name}}</italic> and <bold>level</bold> with the top of the labware.",
  "labware_step_detail_labware_plural": "The tips should be centered above column 1 in <italic>{{labware_name}}</italic> and <bold>level</bold> with the top of the labware.",
  "labware_step_detail_tiprack": "The pipette nozzle should be centered above A1 in <italic>{{tiprack_name}}</italic> and <bold>level</bold> with the top of the tip.",
  "labware_step_detail_tiprack_plural": "The pipette nozzles should be centered above column 1 in <italic>{{tiprack_name}}</italic> and <bold>level</bold> with the top of the tips.",
  "labware_step_detail_link": "See how to tell if the pipette is centered",
  "labware_step_detail_modal_heading": "How to tell if the pipette is centered and level",
  "labware_step_detail_modal_nozzle": "To ensure that the nozzle is centered, check from a second side of your OT-2.",
  "labware_step_detail_modal_nozzle_or_tip": "To ensure the nozzle or tip is level with the top of the labware, position yourself at eye-level and/or slide a sheet of paper between the nozzle and tip.",
  "labware_step_detail_modal_nozzle_image_1_text": "Viewed from front, it appears centered...",
  "labware_step_detail_modal_nozzle_image_2_text": "...but viewed from side, it requires adjustment",
  "labware_step_detail_modal_nozzle_image_2_nozzle_text": "Nozzle is not centered",
  "labware_step_detail_modal_nozzle_or_tip_image_1_text": "Viewed from standing height, it appears level...",
  "labware_step_detail_modal_nozzle_or_tip_image_2_text": "... but viewed from eye-level, it requires adjustment",
  "labware_step_detail_modal_nozzle_or_tip_image_2_nozzle_text": "Nozzle is not level",
  "labware_step_detail_modal_nozzle_or_tip_image_3_text": "If you’re having trouble, slide 1 sheet of printer paper between the nozzle and the tip. A single piece of paper should barely pass between them.",
  "start_position_check": "begin labware position check, move to Slot {{initial_labware_slot}}",
  "jog_controls_adjustment": "Need to make an adjustment?",
  "reveal_jog_controls": "Reveal jog controls",
  "lpc_complete_summary_screen_heading": "Labware Position Check Complete",
  "labware_offsets_summary_title": "Labware Offsets to be applied to this run",
  "labware_offsets_summary_location": "Location",
  "labware_offsets_summary_labware": "Labware",
  "labware_offsets_summary_offset": "Labware Offset Data",
  "no_labware_offsets": "No Labware Offsets",
  "confirm_position_and_move": "Confirm position, move to slot {{next_slot}}",
  "confirm_position_and_pick_up_tip": "Confirm position, pick up tip",
  "confirm_position_and_return_tip": "Confirm position, return tip to Slot {{next_slot}}",
  "close_and_apply_offset_data": "Close and apply labware offset data",
  "error_modal_header": "Something went wrong",
  "error_modal_text": "There was an error processing your request on the robot",
  "robot_in_motion": "Stand back, robot is in motion.",
  "moving_to_slot_title": "Moving to slot {{slot}}",
  "picking_up_tip_title": "Picking up tip in slot {{slot}}",
  "returning_tip_title": "Returning tip in slot {{slot}}",
  "check_labware_in_slot_title": "Check Labware {{labware_display_name}} in slot {{slot}}",
  "module_display_location_text": "{{moduleName}} in Deck Slot {{slot}}",
  "labware_display_location_text": "Deck Slot {{slot}}",
  "confirm_pick_up_tip_modal_title": "Did the pipette pick up a tip successfully?",
  "confirm_pick_up_tip_modal_try_again_text": "No, try again",
  "labware_offsets_deleted_warning": "Once you begin Labware Position Check, previously created Labware Offsets will be discarded.",
  "exit_screen_title": "Exit before completing Labware Position Check?",
  "exit_screen_subtitle": "If you exit now, all labware offsets will be discarded. This cannot be undone.",
  "exit_screen_go_back": "Go back to labware position check",
  "exit_screen_confirm_exit": "Exit and discard all labware offsets"
}
